% 1. Title: Perceptron NonLinearly Separable Data
% 
% 2. Sources:
%      (a) Creator: Nunes. Kaiden Daniel
%      (b) Institution: BYU
%      (c) Date: January, 2019
%
% 3. The data has been normalized to the range -1 to 1
%
% 4. FEATURES
%
%COL	NAME						DESCRIPTION
%1		#male_to_female_friends		The ratio of male to female friends (low ratios have more female friends and less male, zero is equal ratio)
%2		#time_spent_ratio			Ratio of how much time is spent with friends as to how much is spent doing other things (low ratio means spending less time)
%3		#is_male					Whether the person is male or not

@RELATION friendship

@ATTRIBUTE male_to_female_friends   CONTINUOUS
@ATTRIBUTE time_spent				CONTINUOUS
@ATTRIBUTE is_male					{False, True}

  
@DATA
	-0.98,-0.98,False
	-0.6,-0.7,False
	0.72,0.73,False
	0.89,0.31,False
	-0.9,-1,True
	-0.87,-0.72,True
	0.8,0.7,True
	0.6,0.3,True